Apr 22 20:34:17.847 HYPERVISOR: Release 0.2.14-x86/Windows (tag 2014092320)
Apr 22 20:34:17.847 HYPERVISOR: Started on IP = 127.0.0.1, TCP port = 50657.
Apr 22 20:34:17.863 HYPERVISOR: exec_cmd: hypervisor version 
Apr 22 20:34:17.863 HYPERVISOR: exec_cmd: hypervisor working_dir C:\Users\badkid\GNS3\projects\dcb0dcf1-562b-42e0-a4ca-ae2ace32c10c\project-files\dynamips 
Apr 22 20:34:17.863 GENERAL: working_dir=C:\Users\badkid\GNS3\projects\dcb0dcf1-562b-42e0-a4ca-ae2ace32c10c\project-files\dynamips
Apr 22 20:34:17.863 HYPERVISOR: exec_cmd: vm create R2 16 c7200 
Apr 22 20:34:17.879 VM: VM R2 created.
Apr 22 20:34:17.879 HYPERVISOR: exec_cmd: vm set_con_tcp_port R2 2002 
Apr 22 20:34:17.879 HYPERVISOR: exec_cmd: vm set_aux_tcp_port R2 2003 
Apr 22 20:34:17.894 HYPERVISOR: exec_cmd: c7200 get_mac_addr R2 
Apr 22 20:34:17.894 HYPERVISOR: exec_cmd: vm get_status R2 
Apr 22 20:34:17.894 HYPERVISOR: exec_cmd: vm slot_add_binding R2 0 0 C7200-IO-FE 
Apr 22 20:34:17.910 HYPERVISOR: exec_cmd: vm set_ram R2 512 
Apr 22 20:34:17.910 HYPERVISOR: exec_cmd: vm set_disk0 R2 0 
Apr 22 20:34:17.910 HYPERVISOR: exec_cmd: vm set_ios R2 C:/Users/badkid/GNS3/images/IOS/c7200-advipservicesk9-mz.152-4.S5.image 
Apr 22 20:34:17.925 HYPERVISOR: exec_cmd: vm set_exec_area R2 64 
Apr 22 20:34:17.925 HYPERVISOR: exec_cmd: vm set_nvram R2 512 
Apr 22 20:34:17.925 HYPERVISOR: exec_cmd: vm get_status R2 
Apr 22 20:34:17.941 HYPERVISOR: exec_cmd: vm set_idle_pc R2 0x6318687c 
Apr 22 20:34:17.941 HYPERVISOR: exec_cmd: vm get_status R2 
Apr 22 20:34:17.941 HYPERVISOR: exec_cmd: vm slot_remove_binding R2 0 0 
Apr 22 20:34:17.957 HYPERVISOR: exec_cmd: vm get_status R2 
Apr 22 20:34:17.957 HYPERVISOR: exec_cmd: vm slot_add_binding R2 0 0 C7200-IO-GE-E 
Apr 22 20:34:17.957 HYPERVISOR: exec_cmd: vm get_status R2 
Apr 22 20:34:17.972 HYPERVISOR: exec_cmd: vm slot_add_binding R2 1 0 PA-2FE-TX 
Apr 22 20:34:17.972 HYPERVISOR: exec_cmd: vm set_config R2 configs/i16_startup-config.cfg 
Apr 22 20:34:23.621 HYPERVISOR: exec_cmd: nio create_udp udp-1c92aafa-e6f7-4d96-999c-3704a14cb127 10000 127.0.0.1 10001 
Apr 22 20:34:23.637 HYPERVISOR: exec_cmd: vm slot_add_nio_binding R2 0 0 udp-1c92aafa-e6f7-4d96-999c-3704a14cb127 
Apr 22 20:34:23.652 HYPERVISOR: exec_cmd: vm get_status R2 
Apr 22 20:34:49.253 HYPERVISOR: exec_cmd: vm get_status R2 
Apr 22 20:34:49.253 HYPERVISOR: exec_cmd: vm slot_add_binding R2 4 0 PA-GE 
Apr 22 20:34:49.268 HYPERVISOR: exec_cmd: vm get_status R2 
Apr 22 20:34:49.268 HYPERVISOR: exec_cmd: vm slot_remove_binding R2 1 0 
Apr 22 20:34:49.268 HYPERVISOR: exec_cmd: vm get_status R2 
Apr 22 20:34:49.284 HYPERVISOR: exec_cmd: vm slot_add_binding R2 1 0 PA-A1 
Apr 22 20:34:49.284 HYPERVISOR: exec_cmd: vm get_status R2 
Apr 22 20:34:49.284 HYPERVISOR: exec_cmd: vm slot_add_binding R2 5 0 PA-POS-OC3 
Apr 22 20:34:49.300 HYPERVISOR: exec_cmd: vm get_status R2 
Apr 22 20:34:49.300 HYPERVISOR: exec_cmd: vm slot_add_binding R2 2 0 PA-FE-TX 
Apr 22 20:34:49.300 HYPERVISOR: exec_cmd: vm get_status R2 
Apr 22 20:34:49.300 HYPERVISOR: exec_cmd: vm slot_add_binding R2 3 0 PA-2FE-TX 
Apr 22 20:34:49.315 HYPERVISOR: exec_cmd: vm get_status R2 
Apr 22 20:34:49.315 HYPERVISOR: exec_cmd: vm slot_add_binding R2 6 0 PA-8E 
Apr 22 20:35:21.592 HYPERVISOR: exec_cmd: vm get_status R2 
Apr 22 20:35:21.592 HYPERVISOR: exec_cmd: vm slot_remove_binding R2 4 0 
Apr 22 20:35:21.592 HYPERVISOR: exec_cmd: vm get_status R2 
Apr 22 20:35:21.607 HYPERVISOR: exec_cmd: vm slot_remove_binding R2 1 0 
Apr 22 20:35:21.607 HYPERVISOR: exec_cmd: vm get_status R2 
Apr 22 20:35:21.607 HYPERVISOR: exec_cmd: vm slot_add_binding R2 1 0 PA-GE 
Apr 22 20:35:21.623 HYPERVISOR: exec_cmd: vm get_status R2 
Apr 22 20:35:21.623 HYPERVISOR: exec_cmd: vm slot_remove_binding R2 5 0 
Apr 22 20:35:21.623 HYPERVISOR: exec_cmd: vm get_status R2 
Apr 22 20:35:21.639 HYPERVISOR: exec_cmd: vm slot_remove_binding R2 2 0 
Apr 22 20:35:21.639 HYPERVISOR: exec_cmd: vm get_status R2 
Apr 22 20:35:21.639 HYPERVISOR: exec_cmd: vm slot_remove_binding R2 3 0 
Apr 22 20:35:21.654 HYPERVISOR: exec_cmd: vm get_status R2 
Apr 22 20:35:21.654 HYPERVISOR: exec_cmd: vm slot_remove_binding R2 6 0 
Apr 22 20:35:50.951 HYPERVISOR: exec_cmd: vm create Ghost 0 c7200 
Apr 22 20:35:50.951 VM: VM Ghost created.
Apr 22 20:35:50.967 HYPERVISOR: exec_cmd: vm set_ios Ghost C:/Users/badkid/GNS3/images/IOS/c7200-advipservicesk9-mz.152-4.S5.image 
Apr 22 20:35:50.967 HYPERVISOR: exec_cmd: vm set_ghost_status Ghost 1 
Apr 22 20:35:50.967 HYPERVISOR: exec_cmd: vm set_ghost_file Ghost c7200-advipservicesk9-mz.152-4.S5.image-512.ghost 
Apr 22 20:35:50.982 HYPERVISOR: exec_cmd: vm set_ram Ghost 512 
Apr 22 20:35:50.982 HYPERVISOR: exec_cmd: vm get_status Ghost 
Apr 22 20:35:50.982 HYPERVISOR: exec_cmd: vm start Ghost 
Apr 22 20:35:51.339 HYPERVISOR: exec_cmd: vm get_status Ghost 
Apr 22 20:35:51.346 HYPERVISOR: exec_cmd: vm stop Ghost 
Apr 22 20:35:51.441 VM: VM Ghost shutdown.
Apr 22 20:35:51.448 HYPERVISOR: exec_cmd: vm clean_delete Ghost 
Apr 22 20:35:51.448 VM: VM Ghost destroyed.
Apr 22 20:35:51.472 HYPERVISOR: exec_cmd: vm set_ghost_status R2 2 
Apr 22 20:35:51.477 HYPERVISOR: exec_cmd: vm set_ghost_file R2 c7200-advipservicesk9-mz.152-4.S5.image-512.ghost 
Apr 22 20:35:51.484 HYPERVISOR: exec_cmd: vm get_status R2 
Apr 22 20:35:51.495 HYPERVISOR: exec_cmd: vm start R2 
Apr 22 20:36:48.159 HYPERVISOR: exec_cmd: vm get_status R2 
Apr 22 20:36:48.190 HYPERVISOR: exec_cmd: vm slot_disable_nio R2 0 0 
Apr 22 20:36:48.206 HYPERVISOR: exec_cmd: vm slot_remove_nio_binding R2 0 0 
Apr 22 20:36:48.237 HYPERVISOR: exec_cmd: nio delete udp-1c92aafa-e6f7-4d96-999c-3704a14cb127 
Apr 22 20:36:48.253 HYPERVISOR: exec_cmd: vm get_status R2 
Apr 22 20:36:48.268 HYPERVISOR: exec_cmd: vm stop R2 
Apr 22 20:36:48.425 VM: VM R2 shutdown.
Apr 22 20:36:48.438 HYPERVISOR: exec_cmd: vm extract_config R2 
Apr 22 20:36:48.455 HYPERVISOR: exec_cmd: vm delete R2 
Apr 22 20:36:48.455 VM: VM R2 destroyed.
Apr 22 20:36:48.480 HYPERVISOR: exec_cmd: hypervisor stop 
Apr 22 20:36:48.608 HYPERVISOR: Stopped.
Apr 22 20:36:48.608 GENERAL: reset done.
