Apr 22 20:38:13.971 HYPERVISOR: Release 0.2.14-x86/Windows (tag 2014092320)
Apr 22 20:38:13.971 HYPERVISOR: Started on IP = 127.0.0.1, TCP port = 50684.
Apr 22 20:38:14.127 HYPERVISOR: exec_cmd: hypervisor version 
Apr 22 20:38:14.169 HYPERVISOR: exec_cmd: hypervisor working_dir C:\Users\badkid\GNS3\projects\dcb0dcf1-562b-42e0-a4ca-ae2ace32c10c\project-files\dynamips 
Apr 22 20:38:14.169 GENERAL: working_dir=C:\Users\badkid\GNS3\projects\dcb0dcf1-562b-42e0-a4ca-ae2ace32c10c\project-files\dynamips
Apr 22 20:38:14.198 HYPERVISOR: exec_cmd: vm create R1 26 c7200 
Apr 22 20:38:14.199 VM: VM R1 created.
Apr 22 20:38:14.226 HYPERVISOR: exec_cmd: vm set_con_tcp_port R1 2006 
Apr 22 20:38:14.253 HYPERVISOR: exec_cmd: vm set_aux_tcp_port R1 2007 
Apr 22 20:38:14.279 HYPERVISOR: exec_cmd: c7200 get_mac_addr R1 
Apr 22 20:38:14.306 HYPERVISOR: exec_cmd: vm get_status R1 
Apr 22 20:38:14.334 HYPERVISOR: exec_cmd: vm slot_add_binding R1 0 0 C7200-IO-FE 
Apr 22 20:38:14.360 HYPERVISOR: exec_cmd: vm set_disk0 R1 0 
Apr 22 20:38:14.389 HYPERVISOR: exec_cmd: vm get_status R1 
Apr 22 20:38:14.416 HYPERVISOR: exec_cmd: vm slot_add_binding R1 2 0 PA-2FE-TX 
Apr 22 20:38:14.443 HYPERVISOR: exec_cmd: vm set_ios R1 C:/Users/badkid/GNS3/images/IOS/c7200-advipservicesk9-mz.152-4.S5.image 
Apr 22 20:38:14.469 HYPERVISOR: exec_cmd: vm set_exec_area R1 64 
Apr 22 20:38:14.496 HYPERVISOR: exec_cmd: vm set_nvram R1 512 
Apr 22 20:38:14.523 HYPERVISOR: exec_cmd: vm get_status R1 
Apr 22 20:38:14.551 HYPERVISOR: exec_cmd: vm set_idle_pc R1 0x6318687c 
Apr 22 20:38:14.578 HYPERVISOR: exec_cmd: vm get_status R1 
Apr 22 20:38:14.604 HYPERVISOR: exec_cmd: vm slot_remove_binding R1 0 0 
Apr 22 20:38:14.628 HYPERVISOR: exec_cmd: vm get_status R1 
Apr 22 20:38:14.644 HYPERVISOR: exec_cmd: vm slot_add_binding R1 0 0 C7200-IO-GE-E 
Apr 22 20:38:14.675 HYPERVISOR: exec_cmd: vm get_status R1 
Apr 22 20:38:14.706 HYPERVISOR: exec_cmd: vm slot_add_binding R1 1 0 PA-GE 
Apr 22 20:38:14.737 HYPERVISOR: exec_cmd: vm set_config R1 configs/i26_startup-config.cfg 
Apr 22 20:42:15.027 HYPERVISOR: exec_cmd: vm get_status R1 
Apr 22 20:42:15.059 HYPERVISOR: exec_cmd: vm slot_remove_binding R1 2 0 
Apr 22 20:42:15.074 HYPERVISOR: exec_cmd: vm get_status R1 
Apr 22 20:42:15.074 HYPERVISOR: exec_cmd: vm slot_add_binding R1 2 0 PA-GE 
Apr 22 20:42:21.884 HYPERVISOR: exec_cmd: nio create_udp udp-48fdafd9-99b9-4e1f-bf02-c199fcaa3d99 10006 127.0.0.1 10007 
Apr 22 20:42:21.916 HYPERVISOR: exec_cmd: vm slot_add_nio_binding R1 1 0 udp-48fdafd9-99b9-4e1f-bf02-c199fcaa3d99 
Apr 22 20:42:21.916 HYPERVISOR: exec_cmd: vm get_status R1 
Apr 22 20:45:19.523 HYPERVISOR: exec_cmd: vm rename R1 R1-PE 
Apr 22 20:46:36.275 HYPERVISOR: exec_cmd: vm get_status R1-PE 
Apr 22 20:46:36.275 HYPERVISOR: exec_cmd: vm slot_remove_binding R1-PE 0 0 
Apr 22 20:46:36.275 HYPERVISOR: exec_cmd: vm get_status R1-PE 
Apr 22 20:46:36.291 HYPERVISOR: exec_cmd: vm slot_add_binding R1-PE 0 0 C7200-IO-2FE 
Apr 22 20:46:50.238 HYPERVISOR: exec_cmd: nio create_udp udp-5efd846c-4715-412b-ac1c-60d827ba7c91 10008 127.0.0.1 10009 
Apr 22 20:46:50.261 HYPERVISOR: exec_cmd: vm slot_add_nio_binding R1-PE 0 0 udp-5efd846c-4715-412b-ac1c-60d827ba7c91 
Apr 22 20:46:50.272 HYPERVISOR: exec_cmd: vm get_status R1-PE 
Apr 22 20:46:59.340 HYPERVISOR: exec_cmd: nio create_udp udp-3295dfc3-99ec-4b13-999a-4fca35681790 10011 127.0.0.1 10010 
Apr 22 20:46:59.356 HYPERVISOR: exec_cmd: vm slot_add_nio_binding R1-PE 0 1 udp-3295dfc3-99ec-4b13-999a-4fca35681790 
Apr 22 20:46:59.372 HYPERVISOR: exec_cmd: vm get_status R1-PE 
Apr 22 20:47:40.236 HYPERVISOR: exec_cmd: vm set_ghost_status R1-PE 2 
Apr 22 20:47:40.271 HYPERVISOR: exec_cmd: vm set_ghost_file R1-PE c7200-advipservicesk9-mz.152-4.S5.image-256.ghost 
Apr 22 20:47:40.280 HYPERVISOR: exec_cmd: vm get_status R1-PE 
Apr 22 20:47:40.288 HYPERVISOR: exec_cmd: vm start R1-PE 
Apr 22 20:48:27.322 HYPERVISOR: exec_cmd: vm get_status R1-PE 
Apr 22 20:48:27.365 HYPERVISOR: exec_cmd: vm stop R1-PE 
Apr 22 20:48:27.538 VM: VM R1-PE shutdown.
Apr 22 20:48:27.562 HYPERVISOR: exec_cmd: vm extract_config R1-PE 
Apr 22 20:48:59.856 HYPERVISOR: exec_cmd: hypervisor working_dir C:/Users/badkid/GNS3/projects/MPLS\project-files\dynamips 
Apr 22 20:48:59.856 GENERAL: working_dir=C:/Users/badkid/GNS3/projects/MPLS\project-files\dynamips
Apr 22 20:49:00.578 HYPERVISOR: exec_cmd: vm extract_config R1-PE 
Apr 22 20:49:04.250 HYPERVISOR: exec_cmd: vm extract_config R1-PE 
Apr 22 20:50:06.165 HYPERVISOR: exec_cmd: vm get_status R1-PE 
Apr 22 20:50:06.191 HYPERVISOR: exec_cmd: vm start R1-PE 
Apr 22 20:50:12.013 HYPERVISOR: exec_cmd: vm get_status R1-PE 
Apr 22 20:50:12.044 HYPERVISOR: exec_cmd: vm stop R1-PE 
Apr 22 20:50:12.172 VM: VM R1-PE shutdown.
Apr 22 20:50:12.224 HYPERVISOR: exec_cmd: vm extract_config R1-PE 
Apr 22 20:50:12.388 HYPERVISOR: exec_cmd: vm get_status R1-PE 
Apr 22 20:50:12.421 HYPERVISOR: exec_cmd: vm extract_config R1-PE 
Apr 22 20:50:14.918 HYPERVISOR: exec_cmd: vm get_status R1-PE 
Apr 22 20:50:14.934 HYPERVISOR: exec_cmd: vm start R1-PE 
Apr 22 20:50:58.011 HYPERVISOR: exec_cmd: vm get_status R1-PE 
Apr 22 20:50:58.011 HYPERVISOR: exec_cmd: vm stop R1-PE 
Apr 22 20:50:58.214 VM: VM R1-PE shutdown.
Apr 22 20:50:58.214 HYPERVISOR: exec_cmd: vm extract_config R1-PE 
Apr 22 20:51:00.838 HYPERVISOR: exec_cmd: vm get_status R1-PE 
Apr 22 20:51:00.885 HYPERVISOR: exec_cmd: vm extract_config R1-PE 
Apr 22 20:51:00.932 HYPERVISOR: exec_cmd: vm delete R1-PE 
Apr 22 20:51:00.932 VM: VM R1-PE destroyed.
Apr 22 20:51:00.994 HYPERVISOR: exec_cmd: hypervisor stop 
Apr 22 20:51:01.041 HYPERVISOR: Stopped.
Apr 22 20:51:01.041 GENERAL: reset done.
