May 14 23:50:20.454 HYPERVISOR: Release 0.2.15-amd64/Linux (tag 2015060118)
May 14 23:50:20.454 HYPERVISOR: Started on IP = 127.0.0.1, TCP port = 53419.
May 14 23:50:20.479 HYPERVISOR: exec_cmd: hypervisor version 
May 14 23:50:20.480 HYPERVISOR: exec_cmd: hypervisor working_dir /media/mgill/OS/Users/badkid/GNS3/projects/MPLS/project-files/dynamips 
May 14 23:50:20.480 GENERAL: working_dir=/media/mgill/OS/Users/badkid/GNS3/projects/MPLS/project-files/dynamips
May 14 23:50:20.482 HYPERVISOR: exec_cmd: vm create R3-P 24 c7200 
May 14 23:50:20.486 VM: VM R3-P created.
May 14 23:50:20.488 HYPERVISOR: exec_cmd: vm set_con_tcp_port R3-P 2002 
May 14 23:50:20.489 HYPERVISOR: exec_cmd: vm set_aux_tcp_port R3-P 2003 
May 14 23:50:20.491 HYPERVISOR: exec_cmd: c7200 get_mac_addr R3-P 
May 14 23:50:20.492 HYPERVISOR: exec_cmd: vm get_status R3-P 
May 14 23:50:20.494 HYPERVISOR: exec_cmd: vm slot_add_binding R3-P 0 0 C7200-IO-FE 
May 14 23:50:20.495 HYPERVISOR: exec_cmd: vm get_status R3-P 
May 14 23:50:20.497 HYPERVISOR: exec_cmd: vm slot_add_binding R3-P 6 0 PA-GE 
May 14 23:50:20.506 HYPERVISOR: exec_cmd: vm get_status R3-P 
May 14 23:50:20.508 HYPERVISOR: exec_cmd: vm slot_add_binding R3-P 1 0 PA-GE 
May 14 23:50:20.522 HYPERVISOR: exec_cmd: vm set_disk0 R3-P 0 
May 14 23:50:20.523 HYPERVISOR: exec_cmd: vm set_nvram R3-P 512 
May 14 23:50:20.530 HYPERVISOR: exec_cmd: vm set_ios R3-P /media/mgill/OS/Users/badkid/GNS3/images/IOS/c7200-advipservicesk9-mz.152-4.S5.image 
May 14 23:50:20.547 HYPERVISOR: exec_cmd: vm get_status R3-P 
May 14 23:50:20.558 HYPERVISOR: exec_cmd: vm slot_add_binding R3-P 3 0 PA-GE 
May 14 23:50:20.560 HYPERVISOR: exec_cmd: vm get_status R3-P 
May 14 23:50:20.561 HYPERVISOR: exec_cmd: vm slot_add_binding R3-P 2 0 PA-GE 
May 14 23:50:20.564 HYPERVISOR: exec_cmd: c7200 set_mac_addr R3-P ca18.072c.0000 
May 14 23:50:20.565 HYPERVISOR: exec_cmd: vm get_status R3-P 
May 14 23:50:20.566 HYPERVISOR: exec_cmd: vm set_idle_pc R3-P 0x6318687c 
May 14 23:50:20.569 HYPERVISOR: exec_cmd: vm set_config R3-P configs/i24_startup-config.cfg 
May 14 23:50:21.122 HYPERVISOR: exec_cmd: nio create_udp udp-7c1a5590-7058-431d-b79c-e2f005610d7a 10005 127.0.0.1 10004 
May 14 23:50:21.123 HYPERVISOR: exec_cmd: vm slot_add_nio_binding R3-P 2 0 udp-7c1a5590-7058-431d-b79c-e2f005610d7a 
May 14 23:50:21.123 HYPERVISOR: exec_cmd: vm get_status R3-P 
May 14 23:50:21.210 HYPERVISOR: exec_cmd: nio create_udp udp-55e1ac91-3b52-4529-9dd5-bb193b2736b2 10010 127.0.0.1 10011 
May 14 23:50:21.211 HYPERVISOR: exec_cmd: vm slot_add_nio_binding R3-P 3 0 udp-55e1ac91-3b52-4529-9dd5-bb193b2736b2 
May 14 23:50:21.211 HYPERVISOR: exec_cmd: vm get_status R3-P 
May 14 23:50:21.322 HYPERVISOR: exec_cmd: nio create_udp udp-f5ad6323-adc7-45b5-a890-ebd34b30fefa 10016 127.0.0.1 10017 
May 14 23:50:21.326 HYPERVISOR: exec_cmd: vm slot_add_nio_binding R3-P 6 0 udp-f5ad6323-adc7-45b5-a890-ebd34b30fefa 
May 14 23:50:21.327 HYPERVISOR: exec_cmd: vm get_status R3-P 
May 14 23:50:54.645 HYPERVISOR: exec_cmd: vm set_ghost_status R3-P 2 
May 14 23:50:54.647 HYPERVISOR: exec_cmd: vm set_ghost_file R3-P c7200-advipservicesk9-mz.152-4.S5.image-256.ghost 
May 14 23:50:54.647 HYPERVISOR: exec_cmd: vm get_status R3-P 
May 14 23:50:54.648 HYPERVISOR: exec_cmd: vm start R3-P 
May 14 23:51:18.520 HYPERVISOR: exec_cmd: vm get_status R3-P 
May 14 23:51:18.569 HYPERVISOR: exec_cmd: vm slot_add_binding R3-P 5 0 PA-GE 
May 14 23:51:18.572 HYPERVISOR: exec_cmd: vm slot_oir_start R3-P 5 0 
May 15 00:00:10.802 HYPERVISOR: exec_cmd: nio create_udp udp-bf53071a-5284-45f7-888c-59e26e0927a5 10022 127.0.0.1 10023 
May 15 00:00:10.806 HYPERVISOR: exec_cmd: vm slot_add_nio_binding R3-P 5 0 udp-bf53071a-5284-45f7-888c-59e26e0927a5 
May 15 00:00:10.807 HYPERVISOR: exec_cmd: vm get_status R3-P 
May 15 00:00:10.807 HYPERVISOR: exec_cmd: vm slot_enable_nio R3-P 5 0 
May 15 00:00:16.186 HYPERVISOR: exec_cmd: vm extract_config R3-P 
May 15 00:04:10.086 HYPERVISOR: exec_cmd: nio create_udp udp-41e46750-aa18-4151-9b0e-90343ced4634 10025 127.0.0.1 10024 
May 15 00:04:10.087 HYPERVISOR: exec_cmd: vm slot_add_nio_binding R3-P 1 0 udp-41e46750-aa18-4151-9b0e-90343ced4634 
May 15 00:04:10.088 HYPERVISOR: exec_cmd: vm get_status R3-P 
May 15 00:04:10.088 HYPERVISOR: exec_cmd: vm slot_enable_nio R3-P 1 0 
May 15 00:08:35.723 HYPERVISOR: exec_cmd: vm extract_config R3-P 
May 15 00:10:23.935 HYPERVISOR: exec_cmd: vm extract_config R3-P 
May 15 00:10:29.174 HYPERVISOR: exec_cmd: vm extract_config R3-P 
May 15 00:11:50.525 HYPERVISOR: exec_cmd: vm extract_config R3-P 
May 15 00:21:44.789 HYPERVISOR: exec_cmd: vm get_status R3-P 
May 15 00:21:44.792 HYPERVISOR: exec_cmd: vm stop R3-P 
May 15 00:21:44.944 VM: VM R3-P shutdown.
May 15 00:21:44.945 HYPERVISOR: exec_cmd: vm extract_config R3-P 
May 15 00:21:44.949 HYPERVISOR: exec_cmd: vm get_status R3-P 
May 15 00:21:44.949 HYPERVISOR: exec_cmd: vm extract_config R3-P 
May 15 00:21:48.031 HYPERVISOR: exec_cmd: vm get_status R3-P 
May 15 00:21:48.034 HYPERVISOR: exec_cmd: vm start R3-P 
May 15 00:22:01.773 HYPERVISOR: exec_cmd: vm extract_config R3-P 
May 15 00:25:00.031 HYPERVISOR: exec_cmd: vm extract_config R3-P 
May 15 00:25:25.641 HYPERVISOR: exec_cmd: vm extract_config R3-P 
May 15 00:27:04.371 HYPERVISOR: exec_cmd: vm get_status R3-P 
May 15 00:27:04.371 HYPERVISOR: exec_cmd: vm stop R3-P 
May 15 00:27:04.524 VM: VM R3-P shutdown.
May 15 00:27:04.525 HYPERVISOR: exec_cmd: vm extract_config R3-P 
May 15 00:32:15.650 HYPERVISOR: exec_cmd: vm get_status R3-P 
May 15 00:32:15.655 HYPERVISOR: exec_cmd: vm start R3-P 
May 15 00:32:19.215 HYPERVISOR: exec_cmd: vm extract_config R3-P 
May 15 00:32:26.146 HYPERVISOR: exec_cmd: vm extract_config R3-P 
May 15 00:33:48.857 HYPERVISOR: exec_cmd: vm extract_config R3-P 
May 15 00:33:50.693 HYPERVISOR: exec_cmd: vm get_status R3-P 
May 15 00:33:50.694 HYPERVISOR: exec_cmd: vm stop R3-P 
May 15 00:33:50.849 VM: VM R3-P shutdown.
May 15 00:33:50.853 HYPERVISOR: exec_cmd: vm extract_config R3-P 
May 15 00:33:53.256 HYPERVISOR: exec_cmd: vm get_status R3-P 
May 15 00:33:53.260 HYPERVISOR: exec_cmd: vm extract_config R3-P 
May 15 00:33:53.264 HYPERVISOR: exec_cmd: vm delete R3-P 
May 15 00:33:53.264 VM: VM R3-P destroyed.
May 15 00:33:53.271 HYPERVISOR: exec_cmd: hypervisor stop 
May 15 00:33:53.649 HYPERVISOR: Stopped.
May 15 00:33:53.650 GENERAL: reset done.
