May 14 23:50:20.548 HYPERVISOR: Release 0.2.15-amd64/Linux (tag 2015060118)
May 14 23:50:20.548 HYPERVISOR: Started on IP = 127.0.0.1, TCP port = 47212.
May 14 23:50:20.570 HYPERVISOR: exec_cmd: hypervisor version 
May 14 23:50:20.582 HYPERVISOR: exec_cmd: hypervisor working_dir /media/mgill/OS/Users/badkid/GNS3/projects/MPLS/project-files/dynamips 
May 14 23:50:20.586 GENERAL: working_dir=/media/mgill/OS/Users/badkid/GNS3/projects/MPLS/project-files/dynamips
May 14 23:50:20.602 HYPERVISOR: exec_cmd: vm create CBT2 3 c7200 
May 14 23:50:20.604 VM: VM CBT2 created.
May 14 23:50:20.607 HYPERVISOR: exec_cmd: vm set_con_tcp_port CBT2 2016 
May 14 23:50:20.609 HYPERVISOR: exec_cmd: vm set_aux_tcp_port CBT2 2017 
May 14 23:50:20.611 HYPERVISOR: exec_cmd: c7200 get_mac_addr CBT2 
May 14 23:50:20.612 HYPERVISOR: exec_cmd: vm get_status CBT2 
May 14 23:50:20.613 HYPERVISOR: exec_cmd: vm slot_add_binding CBT2 0 0 C7200-IO-FE 
May 14 23:50:20.614 HYPERVISOR: exec_cmd: vm set_disk0 CBT2 0 
May 14 23:50:20.616 HYPERVISOR: exec_cmd: vm set_nvram CBT2 512 
May 14 23:50:20.619 HYPERVISOR: exec_cmd: vm set_ios CBT2 /media/mgill/OS/Users/badkid/GNS3/images/IOS/c7200-advipservicesk9-mz.152-4.S5.image 
May 14 23:50:20.621 HYPERVISOR: exec_cmd: c7200 set_mac_addr CBT2 ca03.518c.0000 
May 14 23:50:20.622 HYPERVISOR: exec_cmd: vm get_status CBT2 
May 14 23:50:20.623 HYPERVISOR: exec_cmd: vm set_idle_pc CBT2 0x6318687c 
May 14 23:50:20.625 HYPERVISOR: exec_cmd: vm get_status CBT2 
May 14 23:50:20.626 HYPERVISOR: exec_cmd: vm slot_remove_binding CBT2 0 0 
May 14 23:50:20.628 HYPERVISOR: exec_cmd: vm get_status CBT2 
May 14 23:50:20.629 HYPERVISOR: exec_cmd: vm slot_add_binding CBT2 0 0 C7200-IO-2FE 
May 14 23:50:20.631 HYPERVISOR: exec_cmd: vm set_config CBT2 configs/i3_startup-config.cfg 
May 14 23:50:21.136 HYPERVISOR: exec_cmd: nio create_udp udp-6a4d2993-6e64-4efb-b3ad-688edb980aa6 10007 127.0.0.1 10006 
May 14 23:50:21.137 HYPERVISOR: exec_cmd: vm slot_add_nio_binding CBT2 0 0 udp-6a4d2993-6e64-4efb-b3ad-688edb980aa6 
May 14 23:50:21.138 HYPERVISOR: exec_cmd: vm get_status CBT2 
May 14 23:50:54.445 HYPERVISOR: exec_cmd: vm set_ghost_status CBT2 2 
May 14 23:50:54.446 HYPERVISOR: exec_cmd: vm set_ghost_file CBT2 c7200-advipservicesk9-mz.152-4.S5.image-256.ghost 
May 14 23:50:54.447 HYPERVISOR: exec_cmd: vm get_status CBT2 
May 14 23:50:54.453 HYPERVISOR: exec_cmd: vm start CBT2 
May 15 00:00:16.182 HYPERVISOR: exec_cmd: vm extract_config CBT2 
May 15 00:08:35.720 HYPERVISOR: exec_cmd: vm extract_config CBT2 
May 15 00:10:23.932 HYPERVISOR: exec_cmd: vm extract_config CBT2 
May 15 00:10:29.173 HYPERVISOR: exec_cmd: vm extract_config CBT2 
May 15 00:11:50.518 HYPERVISOR: exec_cmd: vm extract_config CBT2 
May 15 00:21:44.697 HYPERVISOR: exec_cmd: vm get_status CBT2 
May 15 00:21:44.700 HYPERVISOR: exec_cmd: vm stop CBT2 
May 15 00:21:44.774 VM: VM CBT2 shutdown.
May 15 00:21:44.777 HYPERVISOR: exec_cmd: vm extract_config CBT2 
May 15 00:21:47.847 HYPERVISOR: exec_cmd: vm get_status CBT2 
May 15 00:21:47.848 HYPERVISOR: exec_cmd: vm start CBT2 
May 15 00:22:01.761 HYPERVISOR: exec_cmd: vm extract_config CBT2 
May 15 00:25:00.026 HYPERVISOR: exec_cmd: vm extract_config CBT2 
May 15 00:25:25.637 HYPERVISOR: exec_cmd: vm extract_config CBT2 
May 15 00:32:19.212 HYPERVISOR: exec_cmd: vm extract_config CBT2 
May 15 00:32:26.138 HYPERVISOR: exec_cmd: vm extract_config CBT2 
May 15 00:33:48.851 HYPERVISOR: exec_cmd: vm extract_config CBT2 
May 15 00:33:50.600 HYPERVISOR: exec_cmd: vm get_status CBT2 
May 15 00:33:50.602 HYPERVISOR: exec_cmd: vm stop CBT2 
May 15 00:33:50.695 VM: VM CBT2 shutdown.
May 15 00:33:50.698 HYPERVISOR: exec_cmd: vm extract_config CBT2 
May 15 00:33:53.256 HYPERVISOR: exec_cmd: vm get_status CBT2 
May 15 00:33:53.260 HYPERVISOR: exec_cmd: vm extract_config CBT2 
May 15 00:33:53.265 HYPERVISOR: exec_cmd: vm delete CBT2 
May 15 00:33:53.265 VM: VM CBT2 destroyed.
May 15 00:33:53.271 HYPERVISOR: exec_cmd: hypervisor stop 
May 15 00:33:53.728 HYPERVISOR: Stopped.
May 15 00:33:53.728 GENERAL: reset done.
