Apr 25 01:33:18.347 HYPERVISOR: Release 0.2.15-amd64/Linux (tag 2015060118)
Apr 25 01:33:18.347 HYPERVISOR: Started on IP = 127.0.0.1, TCP port = 39878.
Apr 25 01:33:18.361 HYPERVISOR: exec_cmd: hypervisor version 
Apr 25 01:33:18.362 HYPERVISOR: exec_cmd: hypervisor working_dir /media/mgill/OS/Users/badkid/GNS3/projects/MPLS/project-files/dynamips 
Apr 25 01:33:18.362 GENERAL: working_dir=/media/mgill/OS/Users/badkid/GNS3/projects/MPLS/project-files/dynamips
Apr 25 01:33:18.362 HYPERVISOR: exec_cmd: vm create R1 4 c7200 
Apr 25 01:33:18.362 VM: VM R1 created.
Apr 25 01:33:18.363 HYPERVISOR: exec_cmd: vm set_con_tcp_port R1 2018 
Apr 25 01:33:18.363 HYPERVISOR: exec_cmd: vm set_aux_tcp_port R1 2019 
Apr 25 01:33:18.363 HYPERVISOR: exec_cmd: c7200 get_mac_addr R1 
Apr 25 01:33:18.363 HYPERVISOR: exec_cmd: vm get_status R1 
Apr 25 01:33:18.364 HYPERVISOR: exec_cmd: vm slot_add_binding R1 0 0 C7200-IO-FE 
Apr 25 01:33:18.364 HYPERVISOR: exec_cmd: vm get_status R1 
Apr 25 01:33:18.364 HYPERVISOR: exec_cmd: vm slot_add_binding R1 2 0 PA-2FE-TX 
Apr 25 01:33:18.365 HYPERVISOR: exec_cmd: vm get_status R1 
Apr 25 01:33:18.365 HYPERVISOR: exec_cmd: vm set_idle_pc R1 0x6318687c 
Apr 25 01:33:18.365 HYPERVISOR: exec_cmd: vm get_status R1 
Apr 25 01:33:18.366 HYPERVISOR: exec_cmd: vm slot_add_binding R1 1 0 PA-GE 
Apr 25 01:33:18.366 HYPERVISOR: exec_cmd: vm set_ios R1 /media/mgill/OS/Users/badkid/GNS3/images/IOS/c7200-advipservicesk9-mz.152-4.S5.image 
Apr 25 01:33:18.366 HYPERVISOR: exec_cmd: vm get_status R1 
Apr 25 01:33:18.367 HYPERVISOR: exec_cmd: vm slot_remove_binding R1 0 0 
Apr 25 01:33:18.367 HYPERVISOR: exec_cmd: vm get_status R1 
Apr 25 01:33:18.367 HYPERVISOR: exec_cmd: vm slot_add_binding R1 0 0 C7200-IO-GE-E 
Apr 25 01:33:18.368 HYPERVISOR: exec_cmd: vm set_nvram R1 512 
Apr 25 01:33:18.368 HYPERVISOR: exec_cmd: vm set_disk0 R1 0 
Apr 25 01:33:18.369 HYPERVISOR: exec_cmd: vm set_config R1 configs/i4_startup-config.cfg 
Apr 25 01:33:38.990 HYPERVISOR: exec_cmd: vm get_status R1 
Apr 25 01:33:38.990 HYPERVISOR: exec_cmd: vm slot_remove_binding R1 1 0 
Apr 25 01:33:38.991 HYPERVISOR: exec_cmd: vm get_status R1 
Apr 25 01:33:38.991 HYPERVISOR: exec_cmd: vm slot_remove_binding R1 0 0 
Apr 25 01:33:38.992 HYPERVISOR: exec_cmd: vm get_status R1 
Apr 25 01:33:38.992 HYPERVISOR: exec_cmd: vm slot_add_binding R1 0 0 C7200-IO-2FE 
Apr 25 01:33:38.992 HYPERVISOR: exec_cmd: vm get_status R1 
Apr 25 01:33:38.992 HYPERVISOR: exec_cmd: vm slot_remove_binding R1 2 0 
Apr 25 01:33:45.183 HYPERVISOR: exec_cmd: vm set_ghost_status R1 2 
Apr 25 01:33:45.184 HYPERVISOR: exec_cmd: vm set_ghost_file R1 c7200-advipservicesk9-mz.152-4.S5.image-256.ghost 
Apr 25 01:33:45.185 HYPERVISOR: exec_cmd: vm get_status R1 
Apr 25 01:33:45.185 HYPERVISOR: exec_cmd: vm start R1 
Apr 25 01:39:56.577 HYPERVISOR: exec_cmd: vm rename R1 CBT1 
Apr 25 01:40:03.894 HYPERVISOR: exec_cmd: vm get_status R1 
Apr 25 01:40:03.895 HYPERVISOR: exec_cmd: vm stop R1 
Apr 25 01:40:03.966 VM: VM R1 shutdown.
Apr 25 01:40:03.970 HYPERVISOR: exec_cmd: vm extract_config R1 
Apr 25 01:40:17.627 HYPERVISOR: exec_cmd: vm rename R1 CBT1 
Apr 25 01:40:17.628 HYPERVISOR: exec_cmd: vm set_config CBT1 configs/i4_startup-config.cfg 
Apr 25 01:40:25.098 HYPERVISOR: exec_cmd: nio create_udp udp-fe1dae7f-4dde-49b3-9189-db8772cfdbdb 10010 127.0.0.1 10011 
Apr 25 01:40:25.102 HYPERVISOR: exec_cmd: vm slot_add_nio_binding CBT1 0 0 udp-fe1dae7f-4dde-49b3-9189-db8772cfdbdb 
Apr 25 01:40:25.103 HYPERVISOR: exec_cmd: vm get_status CBT1 
Apr 25 01:46:16.342 HYPERVISOR: exec_cmd: vm extract_config CBT1 
Apr 25 01:46:24.885 HYPERVISOR: exec_cmd: vm extract_config CBT1 
Apr 25 01:46:34.917 HYPERVISOR: exec_cmd: vm extract_config CBT1 
Apr 25 01:47:49.010 HYPERVISOR: exec_cmd: vm get_status CBT1 
Apr 25 01:47:49.011 HYPERVISOR: exec_cmd: vm start CBT1 
Apr 25 02:31:20.439 HYPERVISOR: exec_cmd: vm extract_config CBT1 
Apr 25 02:31:20.916 HYPERVISOR: exec_cmd: vm extract_config CBT1 
Apr 25 02:31:21.114 HYPERVISOR: exec_cmd: vm extract_config CBT1 
Apr 25 02:31:21.440 HYPERVISOR: exec_cmd: vm extract_config CBT1 
